%YAML 1.1
%TAG !u! tag:unity3d.com,2011:
--- !u!74 &7400000
AnimationClip:
  m_ObjectHideFlags: 0
  m_CorrespondingSourceObject: {fileID: 0}
  m_PrefabInstance: {fileID: 0}
  m_PrefabAsset: {fileID: 0}
  m_Name: Jump
  serializedVersion: 7
  m_Legacy: 0
  m_Compressed: 0
  m_UseHighQualityCurve: 1
  m_RotationCurves: []
  m_CompressedRotationCurves: []
  m_EulerCurves: []
  m_PositionCurves: []
  m_ScaleCurves: []
  m_FloatCurves: []
  m_PPtrCurves:
  - serializedVersion: 2
    curve:
    - time: 0
      value: {fileID: 21300000, guid: a40f83f553c83bb41b6e7eebee38625a, type: 3}
    - time: 0.083333336
      value: {fileID: 21300000, guid: 681f7cfa8673e9b4e8f99bd970c3858e, type: 3}
    - time: 0.16666667
      value: {fileID: 21300000, guid: 277161679956afb4dabc5d883e616e1e, type: 3}
    - time: 0.25
      value: {fileID: 21300000, guid: 758a393d29d57434185396337d5b9af3, type: 3}
    - time: 0.33333334
      value: {fileID: 21300000, guid: 473f563666fe1814d81a4c892c38f788, type: 3}
    - time: 0.41666666
      value: {fileID: 21300000, guid: bb622132b30139048803be8c4b7e77fb, type: 3}
    - time: 0.5
      value: {fileID: 21300000, guid: 7ed781d559b051842ad9dadc4e9ffc2a, type: 3}
    - time: 0.5833333
      value: {fileID: 21300000, guid: 0cc863c0a20de5f4b8474e9682584cb7, type: 3}
    attribute: m_Sprite
    path: 
    classID: 212
    script: {fileID: 0}
    flags: 2
  m_SampleRate: 12
  m_WrapMode: 0
  m_Bounds:
    m_Center: {x: 0, y: 0, z: 0}
    m_Extent: {x: 0, y: 0, z: 0}
  m_ClipBindingConstant:
    genericBindings:
    - serializedVersion: 2
      path: 0
      attribute: 0
      script: {fileID: 0}
      typeID: 212
      customType: 23
      isPPtrCurve: 1
      isIntCurve: 0
      isSerializeReferenceCurve: 0
    pptrCurveMapping:
    - {fileID: 21300000, guid: a40f83f553c83bb41b6e7eebee38625a, type: 3}
    - {fileID: 21300000, guid: 681f7cfa8673e9b4e8f99bd970c3858e, type: 3}
    - {fileID: 21300000, guid: 277161679956afb4dabc5d883e616e1e, type: 3}
    - {fileID: 21300000, guid: 758a393d29d57434185396337d5b9af3, type: 3}
    - {fileID: 21300000, guid: 473f563666fe1814d81a4c892c38f788, type: 3}
    - {fileID: 21300000, guid: bb622132b30139048803be8c4b7e77fb, type: 3}
    - {fileID: 21300000, guid: 7ed781d559b051842ad9dadc4e9ffc2a, type: 3}
    - {fileID: 21300000, guid: 0cc863c0a20de5f4b8474e9682584cb7, type: 3}
  m_AnimationClipSettings:
    serializedVersion: 2
    m_AdditiveReferencePoseClip: {fileID: 0}
    m_AdditiveReferencePoseTime: 0
    m_StartTime: 0
    m_StopTime: 0.6666666
    m_OrientationOffsetY: 0
    m_Level: 0
    m_CycleOffset: 0
    m_HasAdditiveReferencePose: 0
    m_LoopTime: 0
    m_LoopBlend: 0
    m_LoopBlendOrientation: 0
    m_LoopBlendPositionY: 0
    m_LoopBlendPositionXZ: 0
    m_KeepOriginalOrientation: 0
    m_KeepOriginalPositionY: 1
    m_KeepOriginalPositionXZ: 0
    m_HeightFromFeet: 0
    m_Mirror: 0
  m_EditorCurves: []
  m_EulerEditorCurves: []
  m_HasGenericRootTransform: 0
  m_HasMotionFloatCurves: 0
  m_Events: []
